k-Nearest Neighbor:

Loading Breast Cancer data set...
Training set: 698 points.
Query Point: ( 1.98,  1.92,  1.28,  0.07,  0.35, -0.44,  1.46,  1.35, -0.34)
5 nearest neighbors:
	( 1.27,  1.92,  1.95,  0.77, -0.10,  0.38,  1.46,  1.35, -0.34) 	class: 4 	d^2 = 2.33
	( 1.27,  1.27,  1.61, -0.28,  0.35, -0.44,  0.64,  2.34, -0.34) 	class: 4 	d^2 = 2.81
	( 1.98,  2.25,  1.61,  1.12,  0.35,  0.38,  1.87,  2.34, -0.34) 	class: 4 	d^2 = 3.14
	( 1.27,  1.27,  0.27,  0.42,  0.81, -0.17,  0.64,  2.34, -0.34) 	class: 4 	d^2 = 4.00
	( 1.98,  0.94,  0.94,  0.07,  0.35,  0.38, -0.18,  1.03, -0.34) 	class: 4 	d^2 = 4.56
k-NN classification: 4
True class: 4
